{
  "activeBrandingSetId" : "1800a1b8-7ab3-4426-9bf4-9a3b9d88a924",
  "customCSS" : "",
  "developerName" : "cypress",
  "id" : "919cffc3-bd48-44cd-a5b7-eb87f5ced432",
  "label" : "Cypress",
  "layouts" : {
    "Home" : "f8ea49f8-c5a4-4272-8649-6cbb658d04f6",
    "Inner" : "ca256e90-3033-4ac3-8248-a17975553e03",
    "Login" : "8b9ce409-c783-4aa4-8ea9-7020ae5f422b"
  },
  "type" : "theme",
  "views" : [ {
    "componentAttributes" : { },
    "componentName" : "salesforceIdentity:loginBody2",
    "id" : "8b9ce409-c783-4aa4-8ea9-7020ae5f422b",
    "label" : "Login",
    "regions" : [ {
      "id" : "9e52817b-f4cf-4107-bb89-076c37c2cb08",
      "regionName" : "header",
      "type" : "region"
    }, {
      "id" : "07ceb863-5742-4957-b817-0edd64d5abf5",
      "regionName" : "content",
      "type" : "region"
    }, {
      "id" : "71ea118f-36fd-46a5-8729-02da7a169917",
      "regionName" : "footer",
      "type" : "region"
    } ],
    "type" : "view"
  }, {
    "componentAttributes" : {
      "fixedPageWidth" : 1440,
      "headerBgColor" : "rgba(255, 255, 255, 0.8)",
      "isHeaderPinned" : false,
      "isHeroUnderHeader" : false,
      "isPageWidthFixed" : true,
      "showHeader" : true,
      "showHero" : false
    },
    "componentName" : "siteforce:themeLayoutStarter",
    "id" : "ca256e90-3033-4ac3-8248-a17975553e03",
    "label" : "Default",
    "regions" : [ {
      "components" : [ {
        "componentAttributes" : {
          "background" : "background: rgb(255,255,255)",
          "backgroundOverlayColor" : "rgba(0, 0, 0, 0.3)",
          "borderBottomColor" : "rgba(33, 33, 33, 0.15)",
          "centerAlignLogo" : true,
          "collapseNavMenu" : true,
          "containHeader" : true,
          "containHeaderWidth" : 1440,
          "dropdownBackgroundColor" : "rgb(255, 255, 255)",
          "dropdownBackgroundHoverColor" : "",
          "dropdownBorderColor" : "rgb(240, 240, 240)",
          "dropdownTextColor" : "",
          "dropdownTextHoverColor" : "",
          "headerHeight" : 30,
          "linkActiveBorderColor" : "",
          "linkColor" : "rgba(0, 0, 0, 0.8)",
          "linkHoverColor" : "rgba(0, 0, 0, 0.7)",
          "linkTextShadowColor" : "rgba(255, 255, 255, 0)",
          "logoWidth" : 115,
          "searchStyle" : "collapsed",
          "showAppLauncher" : false,
          "showNavMenuOnLeft" : true,
          "showNotifications" : true,
          "showProfileMenu" : true,
          "showSearch" : true
        },
        "componentName" : "forceCommunity:themeHeaderCompact",
        "id" : "a857f5bb-3e12-45e5-9094-dca13d775c0b",
        "regions" : [ {
          "components" : [ {
            "componentAttributes" : {
              "accountManagementLabel" : "Account Management",
              "buttonBackgroundColor" : "",
              "buttonBackgroundHoverColor" : "",
              "buttonBorderColor" : "rgba(0, 0, 0, 0)",
              "buttonBorderRadius" : 4,
              "buttonText" : "Log in",
              "buttonTextColor" : "",
              "buttonTextHoverColor" : "",
              "communityBuilderLabel" : "Community Builder",
              "communitySetupLabel" : "Community Setup",
              "contactSupportLabel" : "Contact Support",
              "filterName" : "MyCases",
              "homeLabel" : "Home",
              "logoutLabel" : "Logout",
              "menuStyle" : "iconOnly",
              "messagesLabel" : "Messages",
              "myAccountLabel" : "My Account",
              "showAccountManagement" : true,
              "showContactSupport" : true,
              "showMessages" : true,
              "showUserSettings" : true,
              "userSettingsLabel" : "My Settings",
              "viewProfileLabel" : "My Profile"
            },
            "componentName" : "forceCommunity:themeProfileMenu",
            "id" : "091d82f5-f32f-48d0-aa48-17dd134170b2",
            "renditionMap" : { },
            "type" : "component"
          } ],
          "id" : "7f95ffb0-8753-429b-bdfe-251bcfc56e44",
          "regionName" : "themeHeaderProfileMenu",
          "type" : "region"
        }, {
          "components" : [ {
            "componentAttributes" : {
              "backgroundColor" : "rgb(255, 255, 255)",
              "borderColor" : "rgba(0, 0, 0, 0.8)",
              "borderRadius" : 4,
              "borderStyle" : "bottomborder",
              "buttonColor" : "",
              "buttonHoverColor" : "",
              "crossObjectTypeaheadApiNames" : "",
              "iconColor" : "rgba(0, 0, 0, 0.8)",
              "placeholderText" : "Search...",
              "placeholderTextColor" : "rgba(0, 0, 0, 0.6)",
              "showSearchButton" : false,
              "textColor" : "rgba(0, 0, 0, 0.8)",
              "typeaheadResultMax" : 5,
              "useTypeahead" : true
            },
            "componentName" : "forceCommunity:themeSearch",
            "id" : "f82a1a79-3bb5-4ea2-b6e9-b76144fa63e9",
            "renditionMap" : { },
            "type" : "component"
          } ],
          "id" : "43f30bc4-946e-48ba-ab1d-96eafbaa50c1",
          "regionName" : "search",
          "type" : "region"
        }, {
          "components" : [ {
            "componentAttributes" : {
              "navAlignment" : "left",
              "navItemThreshold" : 4,
              "navigationMenuEditorRefresh" : ""
            },
            "componentName" : "forceCommunity:themeNav",
            "id" : "324e298c-1088-4689-8f19-ffe4fa3736cd",
            "renditionMap" : { },
            "type" : "component"
          } ],
          "id" : "f8369b9d-8641-47bb-bb24-e71eeeafcad6",
          "regionName" : "nav",
          "type" : "region"
        } ],
        "renditionMap" : { },
        "type" : "component"
      } ],
      "id" : "47635754-2a4f-4565-90d3-31a0ceefef93",
      "regionName" : "themeHeader",
      "type" : "region"
    }, {
      "components" : [ {
        "componentAttributes" : {
          "bgImage" : "background: rgb(0,0,0) url(/sfsites/assets/themes/cypress-background.jpg) top center /cover",
          "bgOverlayColor" : "rgba(0, 0, 0, 0.35)",
          "captionText" : "Limited time offer",
          "captionTextColor" : "rgb(255, 255, 255)",
          "captionTextShadowColor" : "rgba(0, 0, 0, 0.5)",
          "contentAlignment" : "center",
          "contentWidth" : 60,
          "ctaBtnOneBgColor" : "",
          "ctaBtnOneBgHoverColor" : "",
          "ctaBtnOneBorderColor" : "rgba(0, 0, 0, 0)",
          "ctaBtnOneOpenNewTab" : false,
          "ctaBtnOneText" : "Learn More",
          "ctaBtnOneTextColor" : "",
          "ctaBtnOneTextHoverColor" : "",
          "ctaBtnOneUrl" : "",
          "ctaBtnRadius" : 4,
          "ctaBtnTwoBgColor" : "rgba(255, 255, 255, 0)",
          "ctaBtnTwoBgHoverColor" : "rgb(255, 255, 255)",
          "ctaBtnTwoBorderColor" : "rgb(255, 255, 255)",
          "ctaBtnTwoOpenNewTab" : false,
          "ctaBtnTwoText" : "Secondary",
          "ctaBtnTwoTextColor" : "rgb(255, 255, 255)",
          "ctaBtnTwoTextHoverColor" : "rgba(0, 0, 0, 0.8)",
          "ctaBtnTwoUrl" : "",
          "ctaShowBtnOne" : true,
          "ctaShowBtnTwo" : false,
          "fixedHeroWidth" : true,
          "heroHeight" : 140,
          "heroWidth" : 1440,
          "showCaption" : true,
          "showSubtitle" : false,
          "showTitle" : true,
          "subtitleText" : "Subtitle Content",
          "subtitleTextColor" : "rgb(255, 255, 255)",
          "subtitleTextShadowColor" : "rgba(0, 0, 0, 0.5)",
          "titleText" : "Collect bonus rewards.",
          "titleTextColor" : "rgb(255, 255, 255)",
          "titleTextShadowColor" : "rgba(0, 0, 0, 0.5)",
          "type" : "callToAction"
        },
        "componentName" : "forceCommunity:themeHeroStarter",
        "id" : "1616fc99-1519-4c69-9888-15dd616c97dc",
        "regions" : [ {
          "components" : [ {
            "componentAttributes" : {
              "backgroundColor" : "rgb(255, 255, 255)",
              "borderColor" : "rgba(0, 0, 0, 0.5)",
              "borderRadius" : 4,
              "borderStyle" : "outline",
              "buttonColor" : "",
              "buttonHoverColor" : "",
              "crossObjectTypeaheadApiNames" : "",
              "iconColor" : "rgb(255, 255, 255)",
              "placeholderText" : "Ask a question...",
              "placeholderTextColor" : "rgba(0, 0, 0, 0.6)",
              "publicDropdownBackgroundColor" : "rgb(255, 255, 255)",
              "publicDropdownBackgroundHoverColor" : "",
              "publicDropdownBorderColor" : "rgb(240, 240, 240)",
              "publicDropdownTextColor" : "",
              "publicDropdownTextHoverColor" : "",
              "showSearchButton" : true,
              "textColor" : "rgba(0, 0, 0, 0.8)",
              "typeaheadResultMax" : 6,
              "useTypeahead" : true
            },
            "componentName" : "forceCommunity:themeSearchHero",
            "id" : "6c135233-f8e7-4f1f-824e-19210e6feab8",
            "renditionMap" : { },
            "type" : "component"
          } ],
          "id" : "d6ff1831-464b-444e-a626-ed8c280eb63c",
          "regionName" : "search",
          "type" : "region"
        } ],
        "renditionMap" : { },
        "type" : "component"
      } ],
      "id" : "37ee3d89-e586-4d0c-8afa-741cdf5a695a",
      "regionName" : "themeHero",
      "type" : "region"
    }, {
      "id" : "c8c3226b-8f4a-4011-b8ac-40846c0fc1e5",
      "regionName" : "themeFooter",
      "type" : "region"
    } ],
    "type" : "view"
  }, {
    "componentAttributes" : {
      "fixedPageWidth" : 1440,
      "headerBgColor" : "rgba(28, 22, 28, 0.9)",
      "isHeaderPinned" : true,
      "isHeroUnderHeader" : false,
      "isPageWidthFixed" : false,
      "showHeader" : true,
      "showHero" : true
    },
    "componentName" : "siteforce:themeLayoutStarter",
    "id" : "f8ea49f8-c5a4-4272-8649-6cbb658d04f6",
    "label" : "Home",
    "regions" : [ {
      "components" : [ {
        "componentAttributes" : {
          "background" : "background: rgb(255,255,255)",
          "backgroundOverlayColor" : "rgba(0, 0, 0, 0.3)",
          "borderBottomColor" : "rgba(33, 33, 33, 0.15)",
          "centerAlignLogo" : true,
          "collapseNavMenu" : true,
          "containHeader" : true,
          "containHeaderWidth" : 1440,
          "dropdownBackgroundColor" : "rgb(255, 255, 255)",
          "dropdownBackgroundHoverColor" : "",
          "dropdownBorderColor" : "rgb(240, 240, 240)",
          "dropdownTextColor" : "",
          "dropdownTextHoverColor" : "",
          "headerHeight" : 30,
          "linkActiveBorderColor" : "",
          "linkColor" : "rgba(0, 0, 0, 0.8)",
          "linkHoverColor" : "rgba(0, 0, 0, 0.7)",
          "linkTextShadowColor" : "rgba(255, 255, 255, 0)",
          "logoWidth" : 115,
          "searchStyle" : "collapsed",
          "showAppLauncher" : false,
          "showNavMenuOnLeft" : true,
          "showNotifications" : true,
          "showProfileMenu" : true,
          "showSearch" : true
        },
        "componentName" : "forceCommunity:themeHeaderCompact",
        "id" : "59df91d9-517f-4e12-9a10-c1b2490466a6",
        "regions" : [ {
          "components" : [ {
            "componentAttributes" : {
              "accountManagementLabel" : "Account Management",
              "buttonBackgroundColor" : "",
              "buttonBackgroundHoverColor" : "",
              "buttonBorderColor" : "rgba(0, 0, 0, 0)",
              "buttonBorderRadius" : 4,
              "buttonText" : "Log in",
              "buttonTextColor" : "",
              "buttonTextHoverColor" : "",
              "communityBuilderLabel" : "Community Builder",
              "communitySetupLabel" : "Community Setup",
              "contactSupportLabel" : "Contact Support",
              "filterName" : "MyCases",
              "homeLabel" : "Home",
              "logoutLabel" : "Logout",
              "menuStyle" : "iconOnly",
              "messagesLabel" : "Messages",
              "myAccountLabel" : "My Account",
              "showAccountManagement" : true,
              "showContactSupport" : true,
              "showMessages" : true,
              "showUserSettings" : true,
              "userSettingsLabel" : "My Settings",
              "viewProfileLabel" : "My Profile"
            },
            "componentName" : "forceCommunity:themeProfileMenu",
            "id" : "6a606002-c591-49a6-b0fa-c1fa8c490bdc",
            "renditionMap" : { },
            "type" : "component"
          } ],
          "id" : "0c3ded57-2a19-4f17-a7d9-c2436b5746ec",
          "regionName" : "themeHeaderProfileMenu",
          "type" : "region"
        }, {
          "components" : [ {
            "componentAttributes" : {
              "backgroundColor" : "rgb(255, 255, 255)",
              "borderColor" : "rgba(0, 0, 0, 0.8)",
              "borderRadius" : 4,
              "borderStyle" : "bottomborder",
              "buttonColor" : "",
              "buttonHoverColor" : "",
              "crossObjectTypeaheadApiNames" : "",
              "iconColor" : "rgba(0, 0, 0, 0.8)",
              "placeholderText" : "Search...",
              "placeholderTextColor" : "rgba(0, 0, 0, 0.6)",
              "showSearchButton" : false,
              "textColor" : "rgba(0, 0, 0, 0.8)",
              "typeaheadResultMax" : 5,
              "useTypeahead" : true
            },
            "componentName" : "forceCommunity:themeSearch",
            "id" : "ab5b09a1-a534-4473-8305-0957d4f89b2d",
            "renditionMap" : { },
            "type" : "component"
          } ],
          "id" : "d6ad5a7d-e88b-4b3b-8723-0f462101b6d2",
          "regionName" : "search",
          "type" : "region"
        }, {
          "components" : [ {
            "componentAttributes" : {
              "navAlignment" : "left",
              "navItemThreshold" : 4,
              "navigationMenuEditorRefresh" : ""
            },
            "componentName" : "forceCommunity:themeNav",
            "id" : "c7f1f039-2cda-4bbf-8ef9-eef6b3cb86a6",
            "renditionMap" : { },
            "type" : "component"
          } ],
          "id" : "b36587af-efe1-4e11-a06c-4048ae628546",
          "regionName" : "nav",
          "type" : "region"
        } ],
        "renditionMap" : { },
        "type" : "component"
      } ],
      "id" : "ba2208d5-79f0-4813-9f87-bd72f3a7e62e",
      "regionName" : "themeHeader",
      "type" : "region"
    }, {
      "components" : [ {
        "componentAttributes" : {
          "bgImage" : "background: rgb(0,0,0) url(/sfsites/c/file-asset/shutterstock_10507618732?v=1) top center /cover",
          "bgOverlayColor" : "rgba(0, 0, 0, 0.35)",
          "captionText" : "ASU Preparatory Academy",
          "captionTextColor" : "rgb(255, 255, 255)",
          "captionTextShadowColor" : "rgba(0, 0, 0, 0.5)",
          "contentAlignment" : "right",
          "contentWidth" : 45,
          "ctaBtnOneBgColor" : "",
          "ctaBtnOneBgHoverColor" : "",
          "ctaBtnOneBorderColor" : "rgba(0, 0, 0, 0)",
          "ctaBtnOneOpenNewTab" : false,
          "ctaBtnOneText" : "Student Login",
          "ctaBtnOneTextColor" : "",
          "ctaBtnOneTextHoverColor" : "",
          "ctaBtnOneUrl" : "",
          "ctaBtnRadius" : 4,
          "ctaBtnTwoBgColor" : "rgba(255, 255, 255, 0)",
          "ctaBtnTwoBgHoverColor" : "rgb(255, 255, 255)",
          "ctaBtnTwoBorderColor" : "rgb(255, 255, 255)",
          "ctaBtnTwoOpenNewTab" : false,
          "ctaBtnTwoText" : "Staff Login",
          "ctaBtnTwoTextColor" : "rgb(255, 255, 255)",
          "ctaBtnTwoTextHoverColor" : "rgba(0, 0, 0, 0.8)",
          "ctaBtnTwoUrl" : "/portal/s/staff-portal",
          "ctaShowBtnOne" : true,
          "ctaShowBtnTwo" : true,
          "fixedHeroWidth" : true,
          "heroHeight" : 140,
          "heroWidth" : 1440,
          "showCaption" : true,
          "showSubtitle" : true,
          "showTitle" : true,
          "subtitleText" : "Design your personalized pathway through high school, into college and on to your career.",
          "subtitleTextColor" : "rgb(255, 255, 255)",
          "subtitleTextShadowColor" : "rgba(0, 0, 0, 0.5)",
          "titleText" : "Student Portal",
          "titleTextColor" : "rgb(255, 255, 255)",
          "titleTextShadowColor" : "rgba(0, 0, 0, 0.5)",
          "type" : "callToAction"
        },
        "componentName" : "forceCommunity:themeHeroStarter",
        "id" : "138eb528-fe42-47fd-952a-2988d37d73bb",
        "regions" : [ {
          "components" : [ {
            "componentAttributes" : {
              "backgroundColor" : "rgb(255, 255, 255)",
              "borderColor" : "rgba(0, 0, 0, 0.5)",
              "borderRadius" : 4,
              "borderStyle" : "outline",
              "buttonColor" : "",
              "buttonHoverColor" : "",
              "crossObjectTypeaheadApiNames" : "",
              "iconColor" : "rgb(255, 255, 255)",
              "placeholderText" : "Ask a question...",
              "placeholderTextColor" : "rgba(0, 0, 0, 0.6)",
              "publicDropdownBackgroundColor" : "rgb(255, 255, 255)",
              "publicDropdownBackgroundHoverColor" : "",
              "publicDropdownBorderColor" : "rgb(240, 240, 240)",
              "publicDropdownTextColor" : "",
              "publicDropdownTextHoverColor" : "",
              "showSearchButton" : true,
              "textColor" : "rgba(0, 0, 0, 0.8)",
              "typeaheadResultMax" : 6,
              "useTypeahead" : true
            },
            "componentName" : "forceCommunity:themeSearchHero",
            "id" : "6b8c69b5-0607-4653-90fe-36ac1175c4f6",
            "renditionMap" : { },
            "type" : "component"
          } ],
          "id" : "530d4384-a7c5-4d22-8377-c335b482e7f6",
          "regionName" : "search",
          "type" : "region"
        } ],
        "renditionMap" : { },
        "type" : "component"
      } ],
      "id" : "7944bfff-fb72-4ab8-9e4a-ad42555603eb",
      "regionName" : "themeHero",
      "type" : "region"
    }, {
      "components" : [ {
        "componentAttributes" : {
          "richTextValue" : "<h3 style=\"text-align: center;\"><b style=\"font-family: arial;\">ASU is #1 in the U.S. for&nbsp;&nbsp;Innovation</b></h3><p style=\"text-align: center;\"><br></p><p style=\"text-align: center;\"><a href=\"https://www.asu.edu/copyright/\" target=\"_blank\">Copyright and Trademark</a>&nbsp;&nbsp;&nbsp;&nbsp;<a href=\"https://www.asu.edu/privacy/\" target=\"_blank\">Privacy</a>&nbsp;&nbsp;&nbsp;&nbsp;<a href=\"https://www.asu.edu/tou/\" target=\"_blank\">Terms of Use</a>&nbsp;&nbsp;&nbsp;&nbsp;&nbsp;&nbsp;<a href=\"https://cfo.asu.edu/applicant\" target=\"_blank\">Jobs</a>&nbsp;&nbsp;&nbsp;&nbsp;<a href=\"https://contact.asu.edu/\" target=\"_blank\">Contact ASU</a></p>"
        },
        "componentName" : "forceCommunity:richTextInline",
        "id" : "a5171cbe-3555-478f-8e25-e5b8354ef998",
        "renditionMap" : { },
        "type" : "component"
      } ],
      "id" : "11663914-a134-42ed-b0a7-24b180c19378",
      "regionName" : "themeFooter",
      "type" : "region"
    } ],
    "type" : "view"
  } ]
}