{
  "definitionName" : "cypress:branding-cypress",
  "id" : "1eceb61f-9b28-4aa5-9a92-7d077fcaf126",
  "label" : "Cypress",
  "type" : "brandingSet",
  "values" : {
    "ActionColor" : "rgb(36, 119, 204)",
    "BorderColor" : "rgb(212, 212, 212)",
    "CardBackgroundColor" : "rgba(255, 255, 255, 0)",
    "CompanyLogo" : "/sfsites/assets/themes/cypress-logo.png",
    "DetailTextColor" : "rgba(0, 0, 0, 0.6)",
    "ErrorFontColor" : "#ff9e9e",
    "HeaderFonts" : "Montserrat",
    "LinkColor" : "rgb(0, 95, 178)",
    "LoginBackgroundColor" : "#F4F4F4",
    "LoginBackgroundImage" : "../../../../sfsites/picasso/core/external/salesforceIdentity/images/background.jpg?v=1",
    "OverlayTextColor" : "rgb(255, 255, 255)",
    "PageBackgroundColor" : "rgb(255, 255, 255)",
    "PrimaryFont" : "Lato",
    "TextColor" : "rgba(0, 0, 0, 0.8)",
    "TextTransformStyle" : "none",
    "_ActionColorDarker" : "rgb(28, 94, 161)",
    "_ActionColorTrans" : "rgba(36, 119, 204, 0.9)",
    "_HoverColor" : "rgba(36, 119, 204, 0.05)",
    "_LinkColorDarker" : "rgb(0, 73, 137)",
    "_OverlayTextColorShadow" : "#000000"
  }
}