{
  "activeViewId" : "0ba673f3-f2f5-4b44-88ab-19305f84e8bd",
  "appPageId" : "c6259c98-edf8-41e9-8d59-bb771c0d99b0",
  "id" : "fd7d8ca3-b6a4-41e7-a364-907b6311f39f",
  "label" : "ASU Registration Change Flow",
  "pageAccess" : "UseParent",
  "routeType" : "custom-asu-section-swap-flow",
  "type" : "route",
  "urlPrefix" : "asu-registration-change"
}