{
  "activeViewId" : "ff8c5439-31a8-4d0f-9ceb-3bfb95c73da4",
  "appPageId" : "c6259c98-edf8-41e9-8d59-bb771c0d99b0",
  "id" : "b412528f-918c-466d-871d-6f384929cf5d",
  "label" : "Course Related List",
  "objectApiName" : "hed__Course__c",
  "routeType" : "relatedlist-a05",
  "type" : "route",
  "urlPrefix" : "course"
}