{
  "activeViewId" : "4c48ac32-9140-4120-975e-963df057990a",
  "appPageId" : "c6259c98-edf8-41e9-8d59-bb771c0d99b0",
  "id" : "248aadd3-b406-4bf0-a619-0aacc1317363",
  "label" : "User Settings",
  "routeType" : "usersettings",
  "type" : "route",
  "urlPrefix" : "settings"
}