{
  "appPageId" : "4ee05bbf-4298-4899-a895-4f1990cbc912",
  "componentName" : "siteforce:sldsOneColLayout",
  "id" : "65f5c29d-d312-4ccb-99ae-2645698c03ec",
  "label" : "File Related List",
  "regions" : [ {
    "id" : "8736a696-fd61-49e5-9050-5b59c22228d5",
    "regionName" : "header",
    "type" : "region"
  }, {
    "components" : [ {
      "componentAttributes" : {
        "customTitle" : "",
        "parentRecordId" : "{!recordId}",
        "relatedListName" : "{!relationshipApiName}",
        "showBreadCrumbs" : true,
        "showCustomTitle" : false,
        "showManualRefreshButton" : true,
        "showRowNumbers" : true
      },
      "componentName" : "forceCommunity:relatedList",
      "id" : "fa79212e-96ec-4694-b402-954edabc15f8",
      "renderPriority" : "NEUTRAL",
      "renditionMap" : { },
      "type" : "component"
    } ],
    "id" : "7018fa75-85e8-4b5a-bb52-47bef567fbeb",
    "regionName" : "content",
    "type" : "region"
  }, {
    "id" : "ca739c4d-6b61-4d78-8c05-4414d0337335",
    "regionName" : "footer",
    "type" : "region"
  } ],
  "themeLayoutType" : "Inner",
  "type" : "view",
  "viewType" : "relatedlist-069"
}