{
  "appPageId" : "4ee05bbf-4298-4899-a895-4f1990cbc912",
  "componentName" : "siteforce:sldsOneColLayout",
  "id" : "e71ad9e1-43c7-499a-a01d-a96cd4b0ee6d",
  "label" : "File List",
  "regions" : [ {
    "id" : "43ca43e6-1af1-40af-903e-41aedd8daa20",
    "regionName" : "header",
    "type" : "region"
  }, {
    "components" : [ {
      "componentAttributes" : {
        "pageSize" : 25
      },
      "componentName" : "forceCommunity:filesList",
      "id" : "5253be6d-678d-461a-8573-a273a547efa4",
      "renderPriority" : "NEUTRAL",
      "renditionMap" : { },
      "type" : "component"
    } ],
    "id" : "16db0e6d-64d6-4799-9448-4d1331d2dc6e",
    "regionName" : "content",
    "type" : "region"
  }, {
    "id" : "00dae3b2-5f9d-42bd-895a-fa3e9c0ae57c",
    "regionName" : "footer",
    "type" : "region"
  } ],
  "themeLayoutType" : "Inner",
  "type" : "view",
  "viewType" : "list-069"
}