{
  "appPageId" : "c6259c98-edf8-41e9-8d59-bb771c0d99b0",
  "componentName" : "siteforce:sldsOneColLayout",
  "id" : "0ba673f3-f2f5-4b44-88ab-19305f84e8bd",
  "label" : "ASU Section Swap Flow",
  "regions" : [ {
    "components" : [ {
      "componentAttributes" : {
        "richTextValue" : "<p><a href=\"https://asuprepdigital.force.com/portal/s/staff-portal\" target=\"_self\" style=\"background-color: rgb(255, 255, 255);\">Back to Staff Portal</a></p><h3>Initiate a Registration Change Workflow</h3><p>This workflow enables the creation of a Case that requests a change to an existing registration</p>"
      },
      "componentName" : "forceCommunity:richTextInline",
      "id" : "35b6c5bf-0326-4979-92f2-8881b903c5c1",
      "renderPriority" : "NEUTRAL",
      "renditionMap" : { },
      "type" : "component"
    } ],
    "id" : "ff68c6c0-1b02-44d5-b635-781c3e48ea8d",
    "regionName" : "header",
    "type" : "region"
  }, {
    "components" : [ {
      "componentAttributes" : {
        "flowArguments" : "",
        "flowLayout" : "oneColumn",
        "flowName" : "ASU_Section_Swap"
      },
      "componentName" : "forceCommunity:flowCommunity",
      "id" : "0ec848b7-1793-4031-9e10-04f6b0fce58b",
      "renderPriority" : "NEUTRAL",
      "renditionMap" : { },
      "type" : "component"
    } ],
    "id" : "1253a2ec-88ad-476f-9905-9ca00d2b60a0",
    "regionName" : "content",
    "type" : "region"
  }, {
    "id" : "cd9efdc0-8f5d-4a6b-8ffe-0f130cea9d6e",
    "regionName" : "footer",
    "type" : "region"
  }, {
    "components" : [ {
      "componentAttributes" : {
        "description" : "",
        "metaTags" : "",
        "title" : "ASU Registration Change Request"
      },
      "componentName" : "forceCommunity:seoAssistant",
      "id" : "a3787860-3c64-4789-b434-2d265c238a41",
      "renditionMap" : { },
      "type" : "component"
    } ],
    "id" : "e1538452-a6cd-4ea1-811c-34db794d24e9",
    "regionName" : "sfdcHiddenRegion",
    "type" : "region"
  } ],
  "themeLayoutType" : "Inner",
  "type" : "view",
  "viewType" : "custom-asu-section-swap-flow"
}