{
  "appPageId" : "c6259c98-edf8-41e9-8d59-bb771c0d99b0",
  "componentName" : "siteforce:dynamicLayout",
  "id" : "ecdcaef8-c958-411a-b272-992e0fe63079",
  "label" : "My Account",
  "regions" : [ {
    "id" : "c378385e-af8b-4358-9b42-e091a3c468d1",
    "regionName" : "header",
    "type" : "region"
  }, {
    "components" : [ {
      "componentAttributes" : {
        "background" : "background: rgba(0,0,0,0)",
        "backgroundOverlay" : "rgba(0,0,0,0.5)",
        "contentAreaWidth" : 100,
        "sectionConfig" : {
          "UUID" : "4e69a907-5c81-469f-8c38-94e3dc3096b9",
          "columns" : [ {
            "UUID" : "56ec4c16-0f68-4ee8-9c1c-3f4f40cbbc89",
            "columnName" : "column 1",
            "columnKey" : "col1",
            "columnWidth" : "12",
            "seedComponents" : [ {
              "fqn" : "forceCommunity:recordHeadline",
              "attributes" : {
                "recordId" : "{!CurrentUser.accountId}",
                "sfdc:identifier" : "forceCommunity_recordHeadline"
              }
            }, {
              "fqn" : "forceCommunity:recordHomeTabs",
              "attributes" : {
                "recordId" : "{!CurrentUser.accountId}",
                "sfdc:identifier" : "forceCommunity_recordHomeTabs"
              }
            } ]
          } ]
        },
        "sectionHeight" : 32
      },
      "componentName" : "forceCommunity:section",
      "id" : "4e69a907-5c81-469f-8c38-94e3dc3096b9",
      "regions" : [ {
        "components" : [ {
          "componentAttributes" : {
            "recordId" : "{!CurrentUser.accountId}"
          },
          "componentName" : "forceCommunity:recordHeadline",
          "id" : "5ed6d331-28d8-4555-b6f5-e00ac1c42c58",
          "renderPriority" : "NEUTRAL",
          "renditionMap" : { },
          "type" : "component"
        }, {
          "componentAttributes" : {
            "detailsTabLabel" : "Details",
            "discussionsTabLabel" : "Feed",
            "recordId" : "{!CurrentUser.accountId}",
            "relatedTabLabel" : "Related",
            "tab1Type" : "details",
            "tab2Type" : "related",
            "tab3Type" : "chatter",
            "tab4Type" : "none",
            "timelineTabLabel" : "Activity"
          },
          "componentName" : "forceCommunity:recordHomeTabs",
          "id" : "610002b9-5838-41d1-8690-9625d52051b9",
          "renderPriority" : "NEUTRAL",
          "renditionMap" : { },
          "type" : "component"
        } ],
        "id" : "56ec4c16-0f68-4ee8-9c1c-3f4f40cbbc89",
        "regionLabel" : "column 1",
        "regionName" : "col1",
        "renditionMap" : { },
        "type" : "region"
      } ],
      "renderPriority" : "NEUTRAL",
      "renditionMap" : { },
      "type" : "component"
    } ],
    "id" : "760d4ba5-7a7b-41ef-b8de-db37300ce03b",
    "regionName" : "content",
    "type" : "region"
  }, {
    "id" : "72314e75-934f-4827-98c2-b2b95ce88d34",
    "regionName" : "footer",
    "type" : "region"
  } ],
  "themeLayoutType" : "Inner",
  "type" : "view",
  "viewType" : "my-account"
}