{
  "appPageId" : "c6259c98-edf8-41e9-8d59-bb771c0d99b0",
  "componentName" : "siteforce:sldsOneColLayout",
  "id" : "27f4e60e-a190-4829-a3d8-a239ee234fc0",
  "label" : "Report Builder",
  "regions" : [ {
    "id" : "fa2188f0-e345-44f5-b942-89480d8c959e",
    "regionName" : "header",
    "type" : "region"
  }, {
    "components" : [ {
      "componentAttributes" : {
        "recordId" : "{!recordId}"
      },
      "componentName" : "forceCommunity:reportBuilder",
      "id" : "eaa061e2-bfdd-49ce-8889-c59ed4ef624a",
      "renderPriority" : "NEUTRAL",
      "renditionMap" : { },
      "type" : "component"
    } ],
    "id" : "44ce97b6-4645-4972-9dcc-bf65c4a25f1c",
    "regionName" : "content",
    "type" : "region"
  }, {
    "id" : "572dea32-0b25-484e-afb2-0f89cf220be8",
    "regionName" : "footer",
    "type" : "region"
  } ],
  "themeLayoutType" : "Inner",
  "type" : "view",
  "viewType" : "createreport"
}