{
  "appPageId" : "c6259c98-edf8-41e9-8d59-bb771c0d99b0",
  "componentName" : "siteforce:sldsOneColLayout",
  "id" : "9ddf4edd-63cc-47d3-8b36-532a073b5566",
  "label" : "Resources",
  "regions" : [ {
    "id" : "2e45c2f3-219e-4d8f-8222-b07be6d557c0",
    "regionName" : "header",
    "type" : "region"
  }, {
    "components" : [ {
      "componentAttributes" : {
        "pageSize" : 25
      },
      "componentName" : "forceCommunity:filesList",
      "id" : "633a5797-3932-412d-9c4a-f8a5b40dd3fa",
      "renderPriority" : "NEUTRAL",
      "renditionMap" : { },
      "type" : "component"
    } ],
    "id" : "ca9ad409-9052-4dc3-907f-365ccc8f8dbf",
    "regionName" : "content",
    "type" : "region"
  }, {
    "id" : "ad12c1a6-18f1-43d6-b93a-89a49ec89c51",
    "regionName" : "footer",
    "type" : "region"
  }, {
    "components" : [ {
      "componentAttributes" : {
        "description" : "",
        "metaTags" : "",
        "title" : "Resources"
      },
      "componentName" : "forceCommunity:seoAssistant",
      "id" : "05fd371e-4d5e-43b8-a621-87bfc69db8e8",
      "renditionMap" : { },
      "type" : "component"
    } ],
    "id" : "8c5bfdfc-accb-469c-b7a0-47e24f4496b1",
    "regionName" : "sfdcHiddenRegion",
    "type" : "region"
  } ],
  "themeLayoutType" : "Inner",
  "type" : "view",
  "viewType" : "files"
}