{
  "appPageId" : "c6259c98-edf8-41e9-8d59-bb771c0d99b0",
  "componentName" : "siteforce:sldsOneColLayout",
  "id" : "4c48ac32-9140-4120-975e-963df057990a",
  "label" : "User Settings",
  "regions" : [ {
    "id" : "c7c635de-7942-4695-a0fb-61627eff5dbd",
    "regionName" : "header",
    "type" : "region"
  }, {
    "components" : [ {
      "componentAttributes" : {
        "hideConnectedSources" : false,
        "hideEmailNotificationSettings" : false,
        "id" : "{!userId}"
      },
      "componentName" : "forceCommunity:userSettings",
      "id" : "212567b1-ae78-4e9e-a7c9-4a5ad75ed45e",
      "renderPriority" : "NEUTRAL",
      "renditionMap" : { },
      "type" : "component"
    } ],
    "id" : "ebaa006d-b961-4bcf-b09b-ebaf081a9ebe",
    "regionName" : "content",
    "type" : "region"
  }, {
    "id" : "a8dd4fb2-e535-4094-a126-dace6e8fd695",
    "regionName" : "footer",
    "type" : "region"
  } ],
  "themeLayoutType" : "Inner",
  "type" : "view",
  "viewType" : "usersettings"
}