{
  "activeBrandingSetId" : "7683ce15-e90e-4c17-a502-2b88170506bf",
  "customCSS" : "",
  "developerName" : "ember",
  "id" : "1d76b66c-9c43-41b3-9eda-3c588a3e123b",
  "label" : "Ember",
  "layouts" : {
    "Inner" : "8cf8029b-6ee9-4dd2-8ea3-cc1dae1cbf1c",
    "Login" : "e57511b2-9c03-4508-9d25-aa453e6a5c1c"
  },
  "type" : "theme",
  "views" : [ {
    "componentAttributes" : { },
    "componentName" : "salesforceIdentity:loginBody2",
    "id" : "e57511b2-9c03-4508-9d25-aa453e6a5c1c",
    "label" : "Login",
    "regions" : [ {
      "id" : "167f0d0c-b921-4caa-a184-e73c3368f0f3",
      "regionName" : "header",
      "type" : "region"
    }, {
      "id" : "5e264f16-845f-4fec-b75d-9f30986a9c57",
      "regionName" : "content",
      "type" : "region"
    }, {
      "id" : "23c8aaa6-29f4-4f3e-8dd5-d4817f7d9b13",
      "regionName" : "footer",
      "type" : "region"
    } ],
    "type" : "view"
  }, {
    "componentAttributes" : {
      "fixedPageWidth" : 1440,
      "headerBgColor" : "rgba(255, 255, 255, 0.8)",
      "isHeaderPinned" : false,
      "isHeroUnderHeader" : false,
      "isPageWidthFixed" : true,
      "showHeader" : true,
      "showHero" : false
    },
    "componentName" : "siteforce:themeLayoutStarter",
    "id" : "8cf8029b-6ee9-4dd2-8ea3-cc1dae1cbf1c",
    "label" : "Default",
    "regions" : [ {
      "components" : [ {
        "componentAttributes" : {
          "background" : "background: rgb(42,56,141) url(/sfsites/assets/themes/ember-background.jpg) center center /cover",
          "backgroundOverlayColor" : "rgba(0, 0, 0, 0.3)",
          "borderBottomColor" : "rgba(0, 15, 89, 0.8)",
          "borderTopColor" : "rgba(0, 15, 89, 0.8)",
          "bottomRowHeight" : 5,
          "bottomRowOverlayColor" : "rgb(0, 15, 89)",
          "containHeader" : true,
          "containHeaderWidth" : 1440,
          "dropdownBackgroundColor" : "rgb(255, 255, 255)",
          "dropdownBackgroundHoverColor" : "",
          "dropdownBorderColor" : "rgb(240, 240, 240)",
          "dropdownTextColor" : "",
          "dropdownTextHoverColor" : "",
          "iconLinkColor" : "rgb(255, 255, 255)",
          "iconLinkHoverColor" : "rgba(255, 255, 255, 0.9)",
          "iconLinkTextShadowColor" : "rgba(0, 0, 0, 0.5)",
          "linkActiveBorderColor" : "",
          "linkColor" : "rgb(255, 255, 255)",
          "linkHoverColor" : "rgba(255, 255, 255, 0.9)",
          "linkTextShadowColor" : "rgba(0, 0, 0, 0.5)",
          "logoWidth" : 100,
          "searchPosition" : "right",
          "searchStyle" : "expanded",
          "showAppLauncher" : false,
          "showNotifications" : true,
          "showProfileMenu" : true,
          "showSearch" : true,
          "topRowHeight" : 20
        },
        "componentName" : "forceCommunity:themeHeaderStacked",
        "id" : "4164c8e7-57c7-4401-89c9-5b5c12122fce",
        "regions" : [ {
          "components" : [ {
            "componentAttributes" : {
              "accountManagementLabel" : "Account Management",
              "buttonBackgroundColor" : "",
              "buttonBackgroundHoverColor" : "",
              "buttonBorderColor" : "rgba(0, 0, 0, 0)",
              "buttonBorderRadius" : 4,
              "buttonText" : "Log in",
              "buttonTextColor" : "",
              "buttonTextHoverColor" : "",
              "communityBuilderLabel" : "Community Builder",
              "communitySetupLabel" : "Community Setup",
              "contactSupportLabel" : "Contact Support",
              "filterName" : "MyCases",
              "homeLabel" : "Home",
              "logoutLabel" : "Logout",
              "menuStyle" : "iconOnly",
              "messagesLabel" : "Messages",
              "myAccountLabel" : "My Account",
              "showAccountManagement" : true,
              "showContactSupport" : true,
              "showMessages" : true,
              "showUserSettings" : true,
              "userSettingsLabel" : "My Settings",
              "viewProfileLabel" : "My Profile"
            },
            "componentName" : "forceCommunity:themeProfileMenu",
            "id" : "52685eb5-bf72-40fa-96f1-e42e07557440",
            "renditionMap" : { },
            "type" : "component"
          } ],
          "id" : "2b661563-64a8-4574-b34d-9c7eeef75b2d",
          "regionName" : "themeHeaderProfileMenu",
          "type" : "region"
        }, {
          "components" : [ {
            "componentAttributes" : {
              "backgroundColor" : "rgb(255, 255, 255)",
              "borderColor" : "rgba(0, 15, 89, 0.5)",
              "borderRadius" : 4,
              "borderStyle" : "outline",
              "buttonColor" : "",
              "buttonHoverColor" : "",
              "crossObjectTypeaheadApiNames" : "",
              "iconColor" : "rgba(0, 0, 0, 0.8)",
              "placeholderText" : "Search...",
              "placeholderTextColor" : "rgba(0, 0, 0, 0.6)",
              "showSearchButton" : false,
              "textColor" : "rgba(0, 0, 0, 0.8)",
              "typeaheadResultMax" : 5,
              "useTypeahead" : true
            },
            "componentName" : "forceCommunity:themeSearch",
            "id" : "b1762548-6075-4a22-a2db-0a00883b23ec",
            "renditionMap" : { },
            "type" : "component"
          } ],
          "id" : "4a1cf123-3797-46b4-8931-3748207103f3",
          "regionName" : "search",
          "type" : "region"
        }, {
          "components" : [ {
            "componentAttributes" : {
              "navAlignment" : "left",
              "navItemThreshold" : 7,
              "navigationMenuEditorRefresh" : ""
            },
            "componentName" : "forceCommunity:themeNav",
            "id" : "9c81e750-f9f0-49b6-aa78-31723c587d2a",
            "renditionMap" : { },
            "type" : "component"
          } ],
          "id" : "a7fcedb3-b393-4ca1-9a4b-8453c45e1dc3",
          "regionName" : "nav",
          "type" : "region"
        } ],
        "renditionMap" : { },
        "type" : "component"
      } ],
      "id" : "ceb9ee89-61a0-42b5-8ce9-76407936a3aa",
      "regionName" : "themeHeader",
      "type" : "region"
    }, {
      "components" : [ {
        "componentAttributes" : {
          "bgImage" : "background: rgb(241,241,241)",
          "bgOverlayColor" : "rgba(0, 0, 0, 0.2)",
          "captionText" : "Caption Content",
          "captionTextColor" : "rgba(0, 0, 0, 0.8)",
          "captionTextShadowColor" : "rgba(0, 0, 0, 0)",
          "contentAlignment" : "center",
          "contentWidth" : 45,
          "ctaBtnOneBgColor" : "",
          "ctaBtnOneBgHoverColor" : "",
          "ctaBtnOneBorderColor" : "rgba(0, 0, 0, 0)",
          "ctaBtnOneOpenNewTab" : false,
          "ctaBtnOneText" : "Primary",
          "ctaBtnOneTextColor" : "",
          "ctaBtnOneTextHoverColor" : "",
          "ctaBtnOneUrl" : "",
          "ctaBtnRadius" : 4,
          "ctaBtnTwoBgColor" : "rgba(255, 255, 255, 0)",
          "ctaBtnTwoBgHoverColor" : "rgba(255, 255, 255, 0.9)",
          "ctaBtnTwoBorderColor" : "rgba(0, 0, 0, 0.8)",
          "ctaBtnTwoOpenNewTab" : false,
          "ctaBtnTwoText" : "Secondary",
          "ctaBtnTwoTextColor" : "rgba(0, 0, 0, 0.8)",
          "ctaBtnTwoTextHoverColor" : "rgba(0, 0, 0, 0.8)",
          "ctaBtnTwoUrl" : "",
          "ctaShowBtnOne" : true,
          "ctaShowBtnTwo" : true,
          "fixedHeroWidth" : true,
          "heroHeight" : 80,
          "heroWidth" : 1440,
          "showCaption" : true,
          "showSubtitle" : true,
          "showTitle" : true,
          "subtitleText" : "Subtitle Content",
          "subtitleTextColor" : "rgba(0, 0, 0, 0.8)",
          "subtitleTextShadowColor" : "rgba(0, 0, 0, 0)",
          "titleText" : "Title Content",
          "titleTextColor" : "rgba(0, 0, 0, 0.8)",
          "titleTextShadowColor" : "rgba(0, 0, 0, 0)",
          "type" : "callToAction"
        },
        "componentName" : "forceCommunity:themeHeroStarter",
        "id" : "e9b62085-5637-4a53-9399-e6ab1150a129",
        "regions" : [ {
          "components" : [ {
            "componentAttributes" : {
              "backgroundColor" : "rgb(255, 255, 255)",
              "borderColor" : "rgba(0, 0, 0, 0.2)",
              "borderRadius" : 4,
              "borderStyle" : "outline",
              "buttonColor" : "",
              "buttonHoverColor" : "",
              "crossObjectTypeaheadApiNames" : "",
              "iconColor" : "rgb(255, 255, 255)",
              "placeholderText" : "Ask a question...",
              "placeholderTextColor" : "rgba(0, 0, 0, 0.6)",
              "publicDropdownBackgroundColor" : "rgb(255, 255, 255)",
              "publicDropdownBackgroundHoverColor" : "",
              "publicDropdownBorderColor" : "rgb(240, 240, 240)",
              "publicDropdownTextColor" : "",
              "publicDropdownTextHoverColor" : "",
              "showSearchButton" : true,
              "textColor" : "rgba(0, 0, 0, 0.8)",
              "typeaheadResultMax" : 6,
              "useTypeahead" : true
            },
            "componentName" : "forceCommunity:themeSearchHero",
            "id" : "89e425fc-0304-4467-944d-f925eaaa1c50",
            "renditionMap" : { },
            "type" : "component"
          } ],
          "id" : "204b1569-e3af-4ae5-a6b9-7a46ba464865",
          "regionName" : "search",
          "type" : "region"
        } ],
        "renditionMap" : { },
        "type" : "component"
      } ],
      "id" : "2c86cb31-4f3b-438e-87db-3032fb727cdc",
      "regionName" : "themeHero",
      "type" : "region"
    }, {
      "id" : "92f7436b-c424-4138-a285-8e30e758f8a1",
      "regionName" : "themeFooter",
      "type" : "region"
    } ],
    "type" : "view"
  } ]
}